^D:\GITLAB\VISUAL STUDIO\NANODESIGN_TEST\X64\RELEASE\MAIN.OBJ|D:\GITLAB\VISUAL STUDIO\NANODESIGN_TEST\X64\RELEASE\PARSE.OBJ|D:\GITLAB\VISUAL STUDIO\NANODESIGN_TEST\X64\RELEASE\TXT_FILE.OBJ
D:\GITLAB\VISUAL STUDIO\NANODESIGN_TEST\X64\RELEASE\NANODESIGN_TEST.EXE
D:\GITLAB\VISUAL STUDIO\NANODESIGN_TEST\X64\RELEASE\NANODESIGN_TEST.PDB
