^D:\GITLAB\Visual Studio\nanodesign_test\nanodesign_test.vcxproj
D:\GITLAB\Visual Studio\nanodesign_test\x64\Release\nanodesign_test.ipdb
D:\GITLAB\Visual Studio\nanodesign_test\x64\Release\nanodesign_test.iobj
^D:\GITLAB\Visual Studio\nanodesign_test\nanodesign_test.vcxproj
D:\GITLAB\Visual Studio\nanodesign_test\x64\Release\nanodesign_test.ipdb
D:\GITLAB\Visual Studio\nanodesign_test\x64\Release\nanodesign_test.iobj
